{
    "defaultSeverity": "error",
    "extends": [
        "tslint:recommended"
    ],
    "jsRules": {},
    "rules": {
        "quotemark":[true, "single"],
        "semicolon":true,
        "no-any":true,
        "curly":true,
        "no-empty-interface":true,
        "no-console":false,
        "no-empty":false,
        "no-trailing-whitespace":false

    },
    "rulesDirectory": []
}